{
  "project_info": {
    "project_number": "429081052901",
    "firebase_url": "https://proyectomovil-e248e.firebaseio.com",
    "project_id": "proyectomovil-e248e",
    "storage_bucket": "proyectomovil-e248e.appspot.com"
  },
  "client": [
    {
      "client_info": {
        "mobilesdk_app_id": "1:429081052901:android:d71f41acf6e3affb39360c",
        "android_client_info": {
          "package_name": "facci.angelinepico.projectmovil"
        }
      },
      "oauth_client": [
        {
          "client_id": "429081052901-8tm44u8a6ob0hd1bfotu1ad1ujgtampj.apps.googleusercontent.com",
          "client_type": 1,
          "android_info": {
            "package_name": "facci.angelinepico.projectmovil",
            "certificate_hash": "2b5a560f6332f2a8e7357c47912d06d30cdf8874"
          }
        },
        {
          "client_id": "429081052901-5mn9nf8bfhjd2givju9k2idcht3u7nji.apps.googleusercontent.com",
          "client_type": 3
        }
      ],
      "api_key": [
        {
          "current_key": "AIzaSyCVh9v8RkUlyV_EbqaDFXLBmPA56Ee9OD0"
        }
      ],
      "services": {
        "appinvite_service": {
          "other_platform_oauth_client": [
            {
              "client_id": "429081052901-5mn9nf8bfhjd2givju9k2idcht3u7nji.apps.googleusercontent.com",
              "client_type": 3
            }
          ]
        }
      }
    }
  ],
  "configuration_version": "1"
}